{
   "HorizonLayout":[
      {
         "layout":"logo",
         "showMenu":true,
         "showSearch":false,
         "showLogo":true,
         "showCart":false,
         "showNotification":true,
         "menuIcon":{
            "name":"line_horizontal_3_decrease",
            "fontFamily":"CupertinoIcons"
         },
         "image":"assets/images/logo.png"
      },
      {
         "isSafeArea":false,
         "showSearch":true,
         "usePrimaryColor":true,
         "borderInput":false,
         "title":"Что мы можем помочь Вам найти?",
         "alignment":"centerLeft",
         "fontWeight":0,
         "radius":30,
         "fontSize":15.0,
         "textOpacity":0.8,
         "marginLeft":18.0,
         "marginRight":18.0,
         "marginBottom":10.0,
         "marginTop":5.0,
         "paddingLeft":5.0,
         "paddingRight":15.0,
         "paddingTop":0.0,
         "paddingBottom":0.0,
         "height":45.0,
         "rotate":[
            
         ],
         "layout":"header_search"
      },
      {
         "layout":"bannerImage",
         "isSlider":false,
         "marginTop":0.0,
         "marginBottom":0.0,
         "marginLeft":0.0,
         "marginRight":0.0,
         "height":0.2,
         "fit":"cover",
         "items":[
            {
               "padding":0.0,
               "image":"https://trello.com/1/cards/616cf0c1474d0f60f9f8734a/attachments/61ddf6bd298177089cee9431/download/Group_209.jpg",
               "screen":"blogs"
            }
         ]
      },
      {
         "layout":"category",
         "type":"image",
         "wrap":false,
         "showShortDescription":true,
         "size":1.0,
         "radius":50.0,
         "spacing":12.0,
         "items":[
        {
          "category": "63",
          "image": "https://i.imgur.com/4cRJp8K.png",
          "showText": false,
          "originalColor": false,
          "keepDefaultTitle": false,
          "showDescription": false
        },
        {
          "category": "80",
          "image": "https://i.imgur.com/p0KWt3l.png",
          "showText": false,
          "originalColor": false,
          "keepDefaultTitle": false,
          "showDescription": false
        },
                {
          "category": "67",
          "image": "https://i.imgur.com/wbkBsgv.png",
          "showText": false,
          "originalColor": true,
          "keepDefaultTitle": false,
          "showDescription": false
        },
        {
          "category": "66",
          "image": "https://i.imgur.com/ZN93WQY.png",
          "showText": false,
          "originalColor": true,
          "keepDefaultTitle": false,
          "showDescription": false
        },
        {
          "category": "70",
          "image": "https://i.imgur.com/tCJLKYF.png",
          "showText": false,
          "originalColor": false,
          "keepDefaultTitle": false,
          "showDescription": false
        },
        {
          "category": "88",
          "image": "https://i.imgur.com/7WGQbQH.png",
          "showText": false,
          "originalColor": true,
          "keepDefaultTitle": false,
          "showDescription": false
        },
        {
          "category": "81",
          "image": "https://i.imgur.com/zRQ8RP4.png",
          "showText": false,
          "originalColor": false,
          "keepDefaultTitle": false,
          "showDescription": false
        },
        {
          "category": "89",
          "image": "https://i.imgur.com/sIFN9tg.png",
          "showText": false,
          "originalColor": true,
          "keepDefaultTitle": false,
          "showDescription": false
        }
         ],
         "line":false,
         "marginLeft":10.0,
         "marginRight":10.0,
         "marginTop":0.0,
         "marginBottom":0.0,
         "paddingX":0.0,
         "paddingY":0.0,
         "marginX":0.0,
         "marginY":0.0,
         "hideTitle":false,
         "noBackground":false,
         "itemSize":{
            "width":290.48712086913184,
            "height":96.05021503377125
         }
      },
    {
      "layout": "bannerImage",
      "design": "static",
      "fit": "fill",
      "marginLeft": 0,
      "items": [
        {
          "radius": 19,
          "padding": 0,
          "image": "https://i.imgur.com/3jecKnr.jpeg",
          "showSubcategory": false,
          "blog": "60"
        }
      ],
      "marginBottom": 0,
      "height": 0.15,
      "marginRight": 0,
      "marginTop": 0
    },
      {
         "name":"Рекомендуется для вас",
         "layout":"largeCard",
         "isSnapping":false,
         "rows":1,
         "columns":0,
         "imageBoxfit":"fill",
         "imageRatio":1.2,
         "hMargin":0.0,
         "vMargin":10.0,
         "hPadding":0.0,
         "vPadding":10.0,
         "showStockStatus":true,
         "enableRating":true,
         "hideTitle":false,
         "hideStore":false,
         "hidePrice":false,
         "featured":false,
         "showHeart":false,
         "showCartButton":false,
         "cartIconRadius":9.0,
         "showQuantity":false,
         "showCartIconColor":false,
         "showCartIcon":true,
         "enableBottomAddToCart":false,
         "imageWidth":134.40778657346533,
         "category":"85",
         "tag":null
      },
    {
      "layout": "bannerImage",
      "design": "static",
      "fit": "contain",
      "marginLeft": 0,
      "items": [
        {
          "radius": 0,
          "padding": 0,
          "image": "https://i.imgur.com/d4WaJtF.jpeg",
          "showSubcategory": false,
          "product": "5975"
        }
      ],
      "marginBottom": 0,
      "height": 0.15,
      "marginRight": 0,
      "marginTop": 0
    },
    {
      "layout": "bannerImage",
      "design": "static",
      "fit": "contain",
      "marginLeft": 0,
      "items": [
        {
          "radius": 0,
          "padding": 0,
          "image": "https://i.imgur.com/Jc7lczL.jpeg",
          "showSubcategory": false,
          "product": "1415"
        }
      ],
      "marginBottom": 0,
      "height": 0.15,
      "marginRight": 0,
      "marginTop": 0
    },
    {
      "layout": "bannerImage",
      "design": "static",
      "fit": "contain",
      "marginLeft": 0,
      "items": [
        {
          "radius": 0,
          "padding": 0,
          "image": "https://i.imgur.com/JRQqTlr.jpeg",
          "showSubcategory": false,
          "product": "4255"
        }
      ],
      "marginBottom": 0,
      "height": 0.15,
      "marginRight": 0,
      "marginTop": 0
    },
    {
      "layout": "bannerImage",
      "design": "static",
      "fit": "contain",
      "marginLeft": 0,
      "items": [
        {
          "padding": 0,
          "image": "https://i.imgur.com/xfxYqln.jpeg",
          "radius": 0,
          "showSubcategory": false,
          "category": "88"
        }
      ],
      "marginBottom": 0,
      "height": 0.15,
      "marginRight": 0,
      "marginTop": 0
    },
      {
         "name":"",
         "layout":"card",
         "isSnapping":false,
         "type":"blog"
      },
      {
      "layout": "twoColumn",
      "showCartIconColor": false,
      "vPadding": 0,
      "name": "Restaurant & Cafe",
      "enableBottomAddToCart": false,
      "isSnapping": false,
      "hideTitle": false,
      "hidePrice": true,
      "rows": 1,
      "imageBoxfit": "cover",
      "showCartIcon": true,
      "tag": null,
      "vMargin": 0,
      "showHeart": false,
      "cartIconRadius": 9,
      "hPadding": 0,
      "showCartButton": false,
      "featured": false,
      "showStockStatus": true,
      "enableRating": true,
      "hideStore": false,
      "hMargin": 0,
      "columns": 0,
      "category": "63",
      "showQuantity": false,
      "imageRatio": 1.148714123742055
    },
    {
      "columns": 0,
      "hidePrice": true,
      "hideTitle": false,
      "hMargin": 0,
      "borderRadius": 3,
      "rows": 1,
      "imageBoxfit": "cover",
      "imageRatio": 1.133863959878178,
      "showCartIcon": true,
      "showHeart": false,
      "backgroundWidthMode": true,
      "isSnapping": false,
      "backgroundHeight": 250,
      "showStockStatus": true,
      "vMargin": 0,
      "hPadding": 0,
      "showCartButton": false,
      "hideStore": false,
      "cardDesign": "card",
      "cartIconRadius": 9,
      "showCartIconColor": false,
      "layout": "twoColumn",
      "backgroundRadius": 10,
      "enableBottomAddToCart": false,
      "category": "80",
      "name": "Fast Food",
      "showQuantity": false,
      "vPadding": 0,
      "enableRating": true,
      "showCartButtonWithQuantity": false
    },
    {
      "name": "Beauty",
      "layout": "twoColumn",
      "isSnapping": false,
      "rows": 1,
      "columns": 0,
      "imageBoxfit": "cover",
      "imageRatio": 1.2,
      "hMargin": 0,
      "vMargin": 0,
      "hPadding": 0,
      "vPadding": 0,
      "showStockStatus": true,
      "enableRating": true,
      "hideTitle": false,
      "hideStore": false,
      "hidePrice": true,
      "showHeart": false,
      "showCartButton": false,
      "cartIconRadius": 9,
      "showQuantity": false,
      "showCartIconColor": false,
      "showCartIcon": true,
      "enableBottomAddToCart": false,
      "cardDesign": "card",
      "borderRadius": 3,
      "backgroundRadius": 10,
      "showCartButtonWithQuantity": false,
      "category": "66",
      "backgroundWidthMode": true,
      "backgroundHeight": 250
    },
    {
      "name": "Car Services",
      "layout": "twoColumn",
      "isSnapping": false,
      "rows": 1,
      "columns": 0,
      "imageBoxfit": "scaleDown",
      "imageRatio": 1.2,
      "hMargin": 0,
      "vMargin": 0,
      "hPadding": 0,
      "vPadding": 0,
      "showStockStatus": true,
      "enableRating": true,
      "hideTitle": false,
      "hideStore": false,
      "hidePrice": true,
      "showHeart": false,
      "showCartButton": false,
      "cartIconRadius": 9,
      "showQuantity": false,
      "showCartIconColor": false,
      "showCartIcon": true,
      "enableBottomAddToCart": false,
      "cardDesign": "card",
      "borderRadius": 3,
      "backgroundRadius": 10,
      "showCartButtonWithQuantity": false,
      "category": "67",
      "backgroundWidthMode": true,
      "backgroundHeight": 250
    },
    {
      "borderRadius": 3,
      "name": "Hotels",
      "hidePrice": true,
      "showCartIcon": true,
      "showHeart": false,
      "cardDesign": "card",
      "showQuantity": false,
      "showCartIconColor": false,
      "backgroundWidthMode": true,
      "isSnapping": false,
      "showCartButtonWithQuantity": false,
      "showStockStatus": true,
      "rows": 1,
      "imageBoxfit": "scaleDown",
      "backgroundHeight": 250,
      "vMargin": 0,
      "showCartButton": false,
      "vPadding": 0,
      "category": "70",
      "enableBottomAddToCart": false,
      "enableRating": true,
      "hideStore": false,
      "hideTitle": false,
      "columns": 0,
      "hMargin": 0,
      "cartIconRadius": 9,
      "backgroundRadius": 10,
      "layout": "twoColumn",
      "imageRatio": 1.2,
      "hPadding": 0
    },
    {
      "showCartIcon": true,
      "borderRadius": 3,
      "name": "Event halls",
      "category": "88",
      "showHeart": false,
      "isSnapping": false,
      "columns": 0,
      "enableBottomAddToCart": false,
      "backgroundHeight": 250,
      "rows": 1,
      "showStockStatus": true,
      "hMargin": 0,
      "cartIconRadius": 9,
      "showCartButtonWithQuantity": false,
      "enableRating": true,
      "imageBoxfit": "scaleDown",
      "layout": "twoColumn",
      "imageRatio": 1.2,
      "backgroundWidthMode": true,
      "hideStore": false,
      "backgroundRadius": 10,
      "cardDesign": "card",
      "hidePrice": true,
      "showCartIconColor": false,
      "hPadding": 0,
      "vMargin": 0,
      "showCartButton": false,
      "showQuantity": false,
      "hideTitle": false,
      "vPadding": 0
    },
    {
      "showStockStatus": true,
      "enableBottomAddToCart": false,
      "name": "Night Life",
      "isSnapping": false,
      "backgroundWidthMode": true,
      "showHeart": false,
      "imageBoxfit": "scaleDown",
      "showCartButton": false,
      "hPadding": 0,
      "vPadding": 0,
      "vMargin": 0,
      "showCartIconColor": false,
      "enableRating": true,
      "backgroundHeight": 250,
      "showQuantity": false,
      "cardDesign": "card",
      "columns": 0,
      "layout": "twoColumn",
      "imageRatio": 1.2,
      "category": "71",
      "showCartButtonWithQuantity": false,
      "backgroundRadius": 10,
      "cartIconRadius": 9,
      "rows": 1,
      "borderRadius": 3,
      "hideTitle": false,
      "hideStore": false,
      "hidePrice": true,
      "hMargin": 0,
      "showCartIcon": true
    },
    {
      "backgroundRadius": 10,
      "showStockStatus": true,
      "hidePrice": true,
      "enableRating": true,
      "vMargin": 0,
      "showCartIconColor": false,
      "backgroundWidthMode": true,
      "showQuantity": false,
      "rows": 1,
      "cartIconRadius": 9,
      "hideTitle": false,
      "showCartIcon": true,
      "category": "89",
      "layout": "twoColumn",
      "hPadding": 0,
      "imageRatio": 1.2,
      "columns": 0,
      "borderRadius": 3,
      "showCartButton": false,
      "showHeart": false,
      "name": "Outdoor Activity",
      "isSnapping": false,
      "hideStore": false,
      "enableBottomAddToCart": false,
      "cardDesign": "card",
      "vPadding": 0,
      "hMargin": 0,
      "imageBoxfit": "scaleDown",
      "showCartButtonWithQuantity": false,
      "backgroundHeight": 250
    },

      {
         "name":"Недавний просмотр",
         "layout":"recentView",
         "isSnapping":false,
         "rows":1,
         "columns":0,
         "imageBoxfit":"cover",
         "imageRatio":1.2,
         "hMargin":0.0,
         "vMargin":0.0,
         "hPadding":0.0,
         "vPadding":0.0,
         "showStockStatus":true,
         "enableRating":true,
         "hideTitle":false,
         "hideStore":false,
         "hidePrice":false,
         "featured":false,
         "showHeart":false,
         "showCartButton":false,
         "cartIconRadius":9.0,
         "showQuantity":false,
         "showCartIconColor":false,
         "showCartIcon":true,
         "enableBottomAddToCart":false,
         "tag":null
      }
   ],
   "Setting":{
      "TabBarConfig":{
         "enable":true,
         "isSafeArea":false,
         "color":"fff8c963",
         "colorCart":"fffe2060",
         "colorIcon":"ff3e6641",
         "colorActiveIcon":"fff8c963",
         "iconSize":22.955647901669458,
         "indicatorStyle":"rectangular",
         "showFloatingClip":true,
         "showFloating":false,
         "radiusTopLeft":15.079123349164956,
         "radiusTopRight":15.047170605431592,
         "radiusBottomLeft":15.03100081501931,
         "radiusBottomRight":15.034404981421897,
         "paddingLeft":0.0,
         "paddingRight":0.0,
         "paddingBottom":10.006131677365229,
         "paddingTop":9.960136747221199,
         "marginTop":0.0,
         "marginBottom":14.973564791065872,
         "marginLeft":14.976930273759336,
         "marginRight":15.012519286150008,
         "TabBarIndicator":{
            "height":null,
            "tabPosition":"bottom",
            "topRightRadius":9.138236789907289,
            "topLeftRadius":9.266948361796246,
            "bottomRightRadius":8.866903346613203,
            "bottomLeftRadius":9.173194264700902,
            "color":"ff3e6641",
            "horizontalPadding":10.01247069941136,
            "verticalPadding":null,
            "strokeWidth":null,
            "radius":null,
            "distanceFromCenter":null,
            "paintingStyle":"fill"
         },
         "TabBarFloating":{
            "position":0,
            "radius":null,
            "color":null,
            "location":null,
            "width":null,
            "height":null,
            "elevation":null,
            "floatingType":"rectangle"
         }
      },
      "StickyHeader":true,
      "FontFamily":"Roboto",
      "ProductListLayout":"list",
      "ProductDetail":"simpleType",
      "FontHeader":"ABeeZee",
      "MainColor":"fff8c963"
   },
   "TabBar":[
      {
         "layout":"home",
         "icon":"home",
         "fontFamily":"CupertinoIcons",
         "label":null,
         "pos":100,
         "key":"w0cynm53m9"
      },
      {
         "layout":"map",
         "icon":"location",
         "fontFamily":"CupertinoIcons",
         "label":null,
         "pos":200,
         "categoryLayout":"card",
         "categories":[
            "85",
            "63",
            "65",
            "67",
            "66"
         ],
         "images":null,
         "key":"kowhseyx4h"
      },
      {
         "layout":"category",
         "icon":"rectangle_grid_1x2",
         "fontFamily":"CupertinoIcons",
         "label":null,
         "pos":200,
         "categoryLayout":"card",
         "categories":[
            "85",
            "63",
            "65",
            "67",
            "66"
         ],
         "images":null,
         "key":"kowhseyx4h"
      },
      {
         "fontFamily":"CupertinoIcons",
         "pos":300,
         "icon":"search",
         "size":24,
         "layout":"search",
         "key":"epvpex4fo7"
      },
      {
         "icon":"person",
         "pos":400,
         "label":null,
         "layout":"profile",
         "background":null,
         "settings":[
            "wishlist",
            "notifications",
            "language",
            "darkTheme",
            "rating"
         ],
         "subGeneralSetting":{
            "about":{
               "webUrl":"#",
               "requiredLogin":false,
               "webViewMode":true
            },
            "privacy":{
               "webUrl":"#",
               "requiredLogin":false,
               "webViewMode":false
            }
         },
         "fontFamily":"CupertinoIcons",
         "key":"ozzce1j147"
      }
   ],
   "Drawer":{
      "items":[
         {
            "type":"home",
            "show":true
         },
         {
            "type":"blog",
            "show":true
         },
         {
            "type":"login",
            "show":true
         },
         {
            "type":"category",
            "show":false
         },
         {
            "type":"categories",
            "show":true
         }
      ],
      "zoomConfig":{
         "style":"style1",
         "enableShadow":true,
         "angle":-5
      },
      "logo":"assets/images/logo.png",
      "key":"ncp6sw5us9",
      "subDrawerItem":{
         
      }
   },
   "AppBar":{
      "showOnScreens":[
         
      ]
   },

}
